…
Now joining the datasets.

``` r
q2_merge =
  left_join(pols, snp, by =c("year","month"))
q2_merge
```

    ## # A tibble: 822 x 10
    ##     year month gov_gop sen_gop rep_gop gov_dem sen_dem rep_dem prez  close
    ##    <dbl> <chr>   <dbl>   <dbl>   <dbl>   <dbl>   <dbl>   <dbl> <chr> <dbl>
    ##  1  1947 Jan        23      51     253      23      45     198 dem      NA
    ##  2  1947 Feb        23      51     253      23      45     198 dem      NA
    ##  3  1947 Mar        23      51     253      23      45     198 dem      NA
    ##  4  1947 Apr        23      51     253      23      45     198 dem      NA
    ##  5  1947 May        23      51     253      23      45     198 dem      NA
    ##  6  1947 Jun        23      51     253      23      45     198 dem      NA
    ##  7  1947 Jul        23      51     253      23      45     198 dem      NA
    ##  8  1947 Aug        23      51     253      23      45     198 dem      NA
    ##  9  1947 Sep        23      51     253      23      45     198 dem      NA
    ## 10  1947 Oct        23      51     253      23      45     198 dem      NA
    ## # ... with 812 more rows
…
